{
	"author": "EzCMS",
	"email": "",
	"website": "https://ezcms.net/plugins/plugin/remote-content",
	"version": "3.13.1",
	"releaseDate": "2020-07-28",
	"license": "MIT",
	"compatible": "3.13.1",
	"notes": ""
}