{
    "language-data": {
        "native": "Ελληνικά",
        "english-name": "Greek",
        "locale": "el, el_CY, el_GR",
        "last-update": "2017-09-10",
        "authors": [
            "Konstantinos www.klillis.com",
            "penglezos www.penglezos.com",
            "",
            ""
        ]
    },
    "dates": {
        "Mon": "Δευ",
        "Tue": "Τρ",
        "Wed": "Τετ",
        "Thu": "Πεμ",
        "Fri": "Παρ",
        "Sat": "Σαβ",
        "Sun": "Κυρ",
        "Monday": "Δευτέρα",
        "Tuesday": "Τρίτη",
        "Wednesday": "Τετάρτη",
        "Thursday": "Πέμπτη",
        "Friday": "Παρασκευή",
        "Saturday": "Σάββατο",
        "Sunday": "Κυριακή",
        "Jan": "Ιαν",
        "Feb": "Φεβ",
        "Mar": "Μαρ",
        "Apr": "Απρ",
        "Jun": "Ιουν",
        "Jul": "Ιουλ",
        "Aug": "Αυγ",
        "Sep": "Σεπτ",
        "Oct": "Οκτ",
        "Nov": "Νοε",
        "Dec": "Δεκ",
        "January": "Ιανουαρίου",
        "February": "Φεβρουαρίου",
        "March": "Μαρτίου",
        "April": "Απριλίου",
        "May": "Μαΐου",
        "June": "Ιουνίου",
        "July": "Ιουλίου",
        "August": "Αυγούστου",
        "September": "Σεπτεμβρίου",
        "October": "Οκτωβρίου",
        "November": "Νοεμβρίου",
        "December": "Δεκεμβρίου"
    },
    "dashboard": "Πίνακας Ελέγχου",
    "manage-users": "Διαχείριση Χρηστών",
    "manage-categories": "Διαχείριση κατηγοριών",
    "general-settings": "Γενικές Ρυθμίσεις",
    "advanced-settings": "Προχωρημένες Ρυθμίσεις",
    "thanks-for-supporting-ezcms": "Ευχαριστούμε για την υποστήριξη στο EzCMS",
    "upgrade-to-ezcms-pro": "Αναβαθμίστε στο EzCMS PRO",
    "language": "Γλώσσα",
    "plugin": "Plugin",
    "plugins": "Πρόσθετα",
    "developers": "Developers",
    "themes": "Θέματα",
    "about": "Σχετικά",
    "url": "URL",
    "welcome": "Καλωσήρθατε",
    "logout": "Αποσύνδεση",
    "website": "Ιστοσελίδα",
    "publish": "Δημοσίευσε",
    "manage": "Διαχείριση",
    "content": "Περιεχόμενο",
    "category": "Κατηγορία",
    "categories": "Κατηγορίες",
    "users": "Χρήστες",
    "settings": "Ρυθμίσεις",
    "general": "Γενικά",
    "advanced": "Προχωρημένα",
    "new-content": "Νέο περιεχόμενο",
    "manage-content": "Διαχείριση περιεχομένου",
    "add-new-content": "Προσθήκη νέου περιεχομένου",
    "new-category": "Νέα κατηγορία",
    "you-do-not-have-sufficient-permissions": "Δεν έχεις τα επιτρεπτά διακαιώματα για την πρόσβαση της Σελίδας, επικοινωνήστε με τον διαχειρηστή.",
    "add-a-new-user": "Προσθήκη Χρήστη",
    "url-associated-with-the-content": "URL συνδεδεμένο με το περιεχόμενο.",
    "language-and-timezone": "Γλώσσα και Ζώνη Ώρας",
    "change-your-language-and-region-settings": "Αλλάξτε τις ρυθμίσεις γλώσσας και περιοχής.",
    "notifications": "Ειδοποιήσεις",
    "plugin-activated": "Plugin ενεργοποιημένο",
    "plugin-deactivated": "Plugin απενεργοποιημένο",
    "new-theme-configured": "New theme configured",
    "settings-changes": "Αλλαγές στις ρυθμίσεις",
    "plugin-configured": "Plugin ρυθμίστηκε",
    "welcome-to-ezcms": "Καλώς Ορίσατε στο Βludit",
    "statistics": "Στατιστικά",
    "drafts": "Πρόχειρα",
    "title": "Τίτλος",
    "save": "Αποθήκευση",
    "save-as-draft": "Αποθήκευση ως πρόχειρο",
    "cancel": "Ακύρωση",
    "description": "Περιγραφή",
    "this-field-can-help-describe-the-content": "Αυτό το πεδίο μπορεί να βοηθήσει στην περιγραφή του περιεγχομένου σε λίγες λέξεις. Όριο χαρακτήρων: 150.",
    "images": "Εικόνες",
    "error": "Πρόβλημα",
    "supported-image-file-types": "Υποστηρισμένες εικόνες (τύποι αρχείων)",
    "cover-image": "Εικόνα Εξώφυλλου",
    "drag-and-drop-or-click-here": "Σύρτε και αφήστε ή κάντε κλικ εδώ",
    "there-are-no-images": "Δεν υπάρχουν εικόνες",
    "upload-and-more-images": "Ανεβάστε περισσότερες εικόνες",
    "click-on-the-image-for-options": "Επιλέξτε την εικόνα για επιλογές.",
    "click-here-to-cancel": "Επιλέξτε εδώ για να ακυρώσετε.",
    "insert-image": "Εισαγωγή Εικόνας",
    "set-as-cover-image": "Εφαρμογή ως εικόνα εξώφυλλο",
    "delete-image": "Διαγραφή Εικόνας",
    "tags": "Ετικέτες",
    "add": "Προσθήκη",
    "status": "Κατάσταση",
    "published": "Δημοσιοποιημένο",
    "draft": "Πρόχειρο",
    "empty-title": "Κενός Τίτλος",
    "empty": "empty",
    "date": "Ημέρα",
    "external-cover-image": "External cover image",
    "parent": "Γονικό",
    "full-image-url": "Full image URL.",
    "this-field-is-used-when-you-order-the-content-by-position": "This field is used when you order the content by position.",
    "position": "Θέση",
    "friendly-url": "Φιλικό URL",
    "image-description": "Περιγραφή Εικόνας",
    "add-a-new-category": "Προσθήκη νέας κατηγορίας",
    "name": "Όνομα",
    "username": "Όνομα Χρήστη",
    "first-name": "Μικρό Όνομα",
    "last-name": "Επώνυμο",
    "to-schedule-the-content-select-the-date-and-time": "Για τον προγραμματισμό της ανάρτησης, επιλέξτε την ημερομηνία και ώρα, το status πρέπει να είναι ρυθμισμένο στο \"Published\".",
    "email": "Μήνυμα Ηλεκτρονικού Ταχυδρομείου (e-mail)",
    "role": "Ρόλος",
    "registered": "Εγγεγραμμένος",
    "site-information": "Πληροφορίες Ιστοσελίδας",
    "site-title": "Τίτλος Ιστότοπου",
    "use-this-field-to-name-your-site": "Χρησιμοποιήσετε αυτό το πεδίο για να δώσετε όνομα στην Ιστοσελίδα σας, θα εμφανιστεί στην κορυφή απο κάθε σελίδα της Ιστοσελίδα σας.",
    "site-slogan": "Σύνθημα Ιστότοπου",
    "use-this-field-to-add-a-catchy-phrase": "Χρησιμοποιήσετε αυτό το πεδίο ώστε να προσθέσετε μια φράση για την Ιστοσελίδα σας.",
    "site-description": "Περιγραφή Ιστότοπου",
    "you-can-add-a-site-description-to-provide": "Μπορείτε να προσθέσετε περιγραφή στην ιστοσελίδα σας ώστε να προσφέρετε μια μικρή περιγραφή ή βιογραφία για την Ιστοσελίδα σας.",
    "footer-text": "Κείμενο Υποσελίδας",
    "you-can-add-a-small-text-on-the-bottom": "Μπορείτε να προσθέσετε ένα μικρό κείμενο στον πάτο κάθε σελίδας πχ: δικαιώματα, διαχειρηστής, ημερομηνίες κτλπ.",
    "social-networks-links": "Συνδεσμοι κοινωνικού δικτύου",
    "site-url": "URL Ιστότοπου",
    "email-account-settings": "Ρυθμίσεις Email λογαριασμού",
    "sender-email": "Email αποστολέα",
    "emails-will-be-sent-from-this-address": "Τα Emails θα σταλθούν απο αυτή την διεύθυνση.",
    "url-filters": "Φίλτρα URL",
    "select-your-sites-language": "Επιλογή Γλώσσας της Ιστοσελίδας σας.",
    "timezone": "Ζώνη Ώρας",
    "select-a-timezone-for-a-correct": "Επιλογή ζώνη ώρας για μια σωστή ημέρα\/ώρα που θα εμφανιστεί στην Ιστοσελίδα σας.",
    "locale": "Τοποθεσία",
    "date-and-time-formats": "Μορφή Ημέρας και Ώρας",
    "date-format": "Μορφή Ημέρας",
    "current-format": "Τωρινή Μορφή",
    "version": "Έκδοση",
    "author": "Συγγραφέας",
    "activate": "Ενεργοποίημενο",
    "deactivate": "Απενεργοποιημένο",
    "edit-category": "Επεξεργασία κατηγορίας",
    "delete": "Διαγραφή",
    "password": "Κωδικός Πρόσβασης",
    "confirm-password": "Επιβεβαίωση Κωδικού",
    "editor": "Εκδότης",
    "administrator": "Διαχειριστής",
    "edit-user": "Επεξεργασία Χρήστη",
    "edit-content": "Επεξεργασία περιεχομένου",
    "profile": "Προφίλ",
    "change-password": "Αλλαγή Κωδικού",
    "enabled": "Ενεργοποίημενο",
    "disable-the-user": "Απενεργοποίηση του χρήστη",
    "profile-picture": "Εικόνα Προφίλ",
    "edit-or-delete-your-categories": "Επεξεργασία ή διαγραφή κατηγοριών",
    "create-a-new-category-to-organize-your-content": "Δημιουργία νέας κατηγορίας για οργάνωση του περιεχομένου",
    "confirm-delete-this-action-cannot-be-undone": "Επιβεβαίωση διαγραφής, αυτή η πράξη δεν μπορεί να αναιρεθεί.",
    "do-you-want-to-disable-the-user": "Επιθυμείτε την απενεργοποίηση του χρήστη;",
    "new-password": "Νέος Κωδικός",
    "you-can-change-this-field-when-save-the-current-changes": "Μπορείς να αλλάξεις το πεδίο μετά την αποθήκευση των αλλαγών.",
    "items-per-page": "Αντικείμενα ανα σελίδα",
    "invite-a-friend-to-collaborate-on-your-site": "Προσκάλεσε ενα φίλο να συνεργαστεί στην ιστοσελίδα σου",
    "number-of-items-to-show-per-page": "Πλήθος αντικειμένων να φαίνονται ανα σελίδα.",
    "website-or-blog": "Website ή Blog",
    "order-content-by": "Ταξινόμηση περιεχομένου ανα",
    "edit-or-delete-content-from-your-site": "Επεξεργασία ή διαγραφή περιεχομένου από την ιστοσελίδα",
    "order-the-content-by-date-to-build-a-blog": "Ταξινόμηση του περιεχομένου ανα ημερομηνία για τη δημιουργία Blog, ή κατά περιεχόμενο για το χτίσιμο ιστοσελίδας.",
    "page-not-found-content": "Hey! Δυστυχώς η ιστοσελίδα δεν υπάρχει πλέον.",
    "page-not-found": "Δεν βρέθηκε η σελίδα",
    "predefined-pages": "Προκαθορισμένες σελίδες",
    "returning-page-when-the-page-doesnt-exist": "Σελίδα επιστροφής, όταν η ιστοσελίδα δεν υπάρχει, άστο κενό αν θέλεις να εμφανίζει ένα προεπιλεγμένο μήνυμα.",
    "returning-page-for-the-main-page": "Σελίδα επιστροφής για την κεντρική σελίδα, άστο κενό αν θέλειςνα εμφανίζονται όλες οι σελίδες στην κεντρική σελίδα.",
    "full-url-of-your-site": "Πλήρες URL της ιστοσελίδας. Πρόσθεσε και το HTTP ή HTTPS (μόνο αν έχεις ενεργοποιήσει SSL στον server).",
    "with-the-locales-you-can-set-the-regional-user-interface": "Με τα locales, μπορείς να ορίζεις τις τοπικές ρυθμίσεις, όπως οι ημερομηνίες στη γλώσσα σου. Τα locales πρέπει να είναι εγκατεστημένα στο σύστημά σου.",
    "ezcms-installer": "Εγκατάσταση EzCMS",
    "choose-your-language": "Επιλέξτε την Γλώσσα σας",
    "next": "Επόμενο",
    "complete-the-form-choose-a-password-for-the-username-admin": "Ολοκληρώστε αυτή την φόρμα, επιλέξτε κωδικό για το όνομα χρήστη « admin »",
    "show-password": "Εμφάνιση Κωδικού",
    "install": "Εγκατάσταση",
    "login": "Σύνδεση",
    "back-to-login-form": "Επιστροφή στην φόρμα Σύνδεσης",
    "get-login-access-code": "Πάρε τον κωδικό Σύνδεσης",
    "email-access-code": "Κωδικός Πρόσβασης Email",
    "whats-next": "Τι είναι επόμενο",
    "username-or-password-incorrect": "Το Όνομα Χρήστη ή ο Κωδικός Πρόσβασης είναι λάθος",
    "follow-ezcms-on": "Ακολουθείστε το EzCMS σε: ",
    "this-is-a-brief-description-of-yourself-our-your-site": "Αυτή είναι μια σύντομη περιγραφή του εαυτού σας στην ιστοσελίδα σας, για να αλλάξετε αυτό το κείμενο πηγαίνετε στο μενού διαχείρησης, ρυθμίσεις, πρόσθετα, και ρυθμίσεις σχετικά με τα πρόσθετα.",
    "new-version-available": "Νέα έκδοση είναι διαθέσιμη",
    "new-category-created": "Δημιουργήθηκε νέα κατηγορία",
    "category-deleted": "Κατηγορία διαγράφηκε",
    "category-edited": "Κατηγορία τροποποιήθηκε",
    "new-user-created": "Δημιουργήθηκε νέος χρήστος",
    "user-edited": "Ο χρήστης τροποποιήθηκε",
    "user-deleted": "Ο Χρήστης Διαγράφηκε",
    "recommended-for-recovery-password-and-notifications": "Προτείνεται για ανάκτηση κωδικού και ειδοποιήσεων.",
    "authentication-token": "Authentication Token",
    "token": "Token",
    "current-status": "Current status",
    "upload-image": "Ανέβασμα Εικόνας",
    "the-changes-have-been-saved": "Οι αλλαγές έχουν αποθηκευτεί",
    "label": "Label",
    "links": "Links",
    "this-title-is-almost-always-used-in-the-sidebar-of-the-site": "Αυτός ο τίτλος σχεδόν πάντα χρησιμοποιείται στο πλάι (sidebar) της ιστοσελίδας.",
    "password-must-be-at-least-6-characters-long": "Ο κωδικός πρέπει να είναι τουλάχιστον 6 χαρακτήρες",
    "ip-address-has-been-blocked": "Η διεύθυνση IP έχει μπλοκαριστεί.",
    "try-again-in-a-few-minutes": "Προσπαθήστε ξανά σε μερικά λεπτά.",
    "content-published-from-scheduler": "Περιεχόμενο ανακοινώθηκε από τον προγραμματιστή (scheduler)",
    "blog": "Blog",
    "complete-all-fields": "Συμπληρώστε όλα τα πεδία",
    "static": "Static",
    "about-your-site-or-yourself": "Σχετικά με την ιστοσελίδα ή με εσάς",
    "homepage": "Αρχική σελίδα",
    "disabled": "Απενεργοποιημένο",
    "to-enable-the-user-you-must-set-a-new-password": "Για την ενεργοποίηση του χρήστη πρέπει να ορίσετε νέο κωδικό πρόσβασης.",
    "delete-the-user-and-associate-his-content-to-admin-user": "Διαγραφή του χρήστη και συσχετισμός του περιεχομένου του στον χρήστη admin",
    "delete-the-user-and-all-his-content": "Διαγραφή του χρήστη και όλου του περιεχομένου του",
    "user-disabled": "Απενεργοποιημένος χρήστης",
    "user-password-changed": "Ο κωδικός πρόσβασης άλλαξε",
    "the-password-and-confirmation-password-do-not-match": "Ο κωδικός πρόσβασης και η επιβεβαίωσή του δεν ταιριάζουν",
    "scheduled-content": "Προγραμματισμένο περιεχόμενο",
    "there-are-no-scheduled-content": "Δεν υπάρχει προγραμματισμένο περιεχόμενο.",
    "new-content-created": "Νέο περιεχόμενο δημιουργήθηκε",
    "content-edited": "Το περιεχόμενο τροποποιήθηκε",
    "content-deleted": "Το περιεχόμενο διεγράφη",
    "undefined": "Undefined",
    "create-new-content-for-your-site": "Δημιουργία νέου περιεχομένου για την ιστοσελίδα",
    "order-items-by": "Ταξινόμηση αντικειμένων κατά",
    "all-content": "Όλο το περιεχόμενο",
    "dynamic": "Δυναμικό",
    "type": "Type",
    "draft-content": "Πρόχειρο περιεχόμενο",
    "post": "Ανάρτηση",
    "default": "Προεπιλεγμένο",
    "latest-content": "Latest content",
    "default-message": "Default message",
    "no-parent": "No parent",
    "have-you-seen-my-ball": "Έχεις δει την μπάλα μου;",
    "pagebreak": "Αλλαγή σελίδας (page break)",
    "pages": "Σελίδες",
    "this-plugin-may-not-be-supported-by-this-version-of-ezcms": "Αυτό το plugin δεν υποστηρίζεται από την τρέχουσα έκδοση του EzCMS",
    "previous": "Προηγούμενο",
    "previous-page": "Προηγούμενη σελίδα",
    "next-page": "Επόμενη σελίδα",
    "scheduled": "Προγραμματισμένο",
    "this-token-is-similar-to-a-password-it-should-not-be-shared": "This token is similar to a password, it should not be shared.",
    "congratulations-you-have-successfully-installed-your-own-copy-of-ezcms": "Συγχαρητήρια, εγκαταστήσατε με επιτυχία το **EzCMS**",
    "this-theme-may-not-be-supported-by-this-version-of-ezcms": "Αυτό το θέμα, δεν υποστηρίζεται από την τρέχουσα έκδοση του EzCMS",
    "read-more": "Διαβάστε περισσότερα",
    "remember-me": "Να με θυμάται",
    "plugins-position": "Τοποθεσία Plugin",
    "plugins-sorted": "Ταξινομημένα Plugins",
    "plugins-position-changed": "Η θέση του Plugin άλλαξε",
    "drag-and-drop-to-set-the-position-of-the-plugin": "Drag and Drop για να ορίσεις τη θέση των plugins",
    "change-the-position-of-the-plugins": "Άλλαξε τη θέση των plugins",
    "reading-time": "Χρόνος ανάγνωσης",
    "minutes": "λεπτά",
    "minute": "λεπτό",
    "example-page-1-slug": "create-your-own-content",
    "example-page-1-title": "Create your own content",
    "example-page-1-content": "Ξεκίνα να γράφεις το δικό σου περιεχόμενο ή τροποποίησε το υπάρχον για να ταιριάζει στις ανάγκες σου. Για δημιουργία, τροποποίηση, ή διαγραφή περιεχομένου, χρειάζεται να έχεις κάνει login στο <a href=\".\/admin\/\">admin panel<\/a> με το username `admin` και το password που όρισες κατά την εγκατάσταση.",
    "example-page-2-slug": "setup-your-new-site",
    "example-page-2-title": "Δημιουργία της νέας σου ιστοσελίδας",
    "example-page-2-content": "Ενημέρωσε τις ρυθμίσεις της ιστοσελίδας από το <a href=\".\/admin\/\">admin panel<\/a>, μπορείς να αλλάξεις τον τίτλο, περιγραφή και τα κοινωνικά δίκτυα από τα <a href=\".\/admin\/settings\" target=\"_blank\">Settings > General<\/a>.",
    "example-page-3-slug": "follow-ezcms",
    "example-page-3-title": "Ακολουθήστε στο EzCMS",
    "example-page-3-content": "Πάρε πληροφορίες για νέα, νέες εκδόσεις, νέα θέματα ή Plugin στα κοινωνικά μας δίκτυα <a href=\"https:\/\/www.facebook.com\/ezcms\/\" target=\"_blank\">Facebook<\/a>, <a href=\"https:\/\/www.twitter.com\/ezcms\/\" target=\"_blank\">Twitter<\/a> and <a href=\"https:\/\/www.youtube.com\/c\/EzCMScms\" target=\"_blank\">YouTube<\/a> ή επισκέψου το <a href=\"https:\/\/ezcms.net/blogs\" target=\"_blank\">Blog<\/a>.",
    "example-page-4-slug": "about",
    "example-page-4-title": "Ποιοι είμαστε",
    "example-page-4-content": "Your About page is typically one of the most visited pages on your site, need to be simple with a few key things, such as your name, who are you, how can contact you, a small story, etc.",
    "the-extension-zip-is-not-installed": "The extension zip is not installed, to use this plugin you need to install the extension.",
    "there-are-no-sticky-pages-at-this-moment": "There are no sticky pages at this moment.",
    "there-are-no-scheduled-pages-at-this-moment": "There are no scheduled pages at this moment.",
    "update": "Ενημέρωση",
    "template": "Template",
    "nickname": "Ψευδόνυμο",
    "disable-user": "Απενεργοποίηση χρήστη",
    "delete-user-and-keep-content": "Διαγραφή του χρήστη και διατήρηση περιεχομένου",
    "delete-user-and-delete-content": "Διαγραφή χρήστη και διαγραφή περιεχομένου (Προσοχή)",
    "social-networks": "Social Networks",
    "interval": "Interval",
    "number-in-minutes-for-every-execution-of-autosave": "Λεπτά για την επόμενη εκτέλεση αυτόματης αποθήκευσης.",
    "extreme-friendly-url": "Extreme friendly URL",
    "title-formats": "Title formats",
    "delete-content": "Delete content",
    "are-you-sure-you-want-to-delete-this-page": "Είστε σίγουροι για τη διαγραφή της σελίδας;",
    "sticky": "Sticky",
    "actions": "Actions",
    "edit": "Edit",
    "options": "Options",
    "enter-title": "Εισάγετε τίτλο",
    "media-manager": "Media Manager",
    "set-a-cover-image-from-external-url,-such-as-a-cdn-or-some-server-dedicated-for-images": "Όρισε την εικόνα εξώφυλλο από εξωτερικό URL, όπως κάποιο CDN ή κάποιο server ορισμένο για εικόνες.",
    "user": "Χρήστης",
    "date-format-format": "Μορφή ημερομηνίας: <code>YYYY-MM-DD Hours:Minutes:Seconds<\/code>",
    "start-typing-a-page-title-to-see-a-list-of-suggestions": "Ξεκίνα την πληκτρολόγηση του τίτλου σελίδας, για να δεις μια λίστα με προτάσεις.",
    "field-used-when-ordering-content-by-position": "Πεδίο που χρησιμοποιείται όταν ταξινομείται περιεχόμενο με τη θέση",
    "write-a-template-name-to-filter-the-page-in-the-theme-and-change-the-style-of-the-page": "Γράψε το όνομα του template για να εντοπίσεις το θέμα που θα αλλάξει το στυλ της σελίδας.",
    "write-the-tags-separated-by-commas": "Γράψε τα tags χωρισμένα με κόμμα.",
    "apply-code-noindex-code-to-this-page": "Εφαρμογή <code>noindex<\/code> σε αυτή τη σελίδα.",
    "this-tells-search-engines-not-to-show-this-page-in-their-search-results": "Αυτό υποδεικνύει στις μηχανές αναζήτησης να μη δείξουν τη σελίδα στα αποτελέσματα αναζήτησής τους.",
    "apply-code-nofollow-code-to-this-page": "Εφαρμογή <code>nofollow<\/code> σε αυτή τη σελίδα.",
    "this-tells-search-engines-not-to-follow-links-on-this-page": "Αυτό υποδεικνύει στις μηχανές αναζήτησης να μην ακολουθήσουν τα Links της σελίδας.",
    "apply-code-noarchive-code-to-this-page": "Εφαρμογή <code>noarchive<\/code> σε αυτή τη σελίδα.",
    "this-tells-search-engines-not-to-save-a-cached-copy-of-this-page": "Αυτό υποδεικνύει στις μηχανές αναζήτησης να μην αποθηκεύουν ενα αντίγραφο της σελίδας στην cache τους.",
    "uncategorized": "Χωρίς κατηγορία",
    "done": "Έγινε",
    "delete-category": "Διαγραφή κατηγορίας",
    "are-you-sure-you-want-to-delete-this-category?": "Είστε σίγουροι οτι θέλετε να διαγράψετε αυτή την κατηγορία;",
    "confirm-new-password": "Επιβεβαίωση νέου κωδικού πρόσβασης",
    "the-nickname-is-almost-used-in-the-themes-to-display-the-author-of-the-content": "Το ψευδόνυμο χρησιμοποιείται ήδη από το θέμα για να δείξει τον δημιουργό του περιεχομένου",
    "allow-unicode": "Να επιτρέπεται Unicode",
    "allow-unicode-characters-in-the-url-and-some-part-of-the-system": "Να επιτρέπονται χαρακτήρες Unicode στο URL και σε άλλα σημεία του συστήματος.",
    "variables-allowed": "Να επιτρέπονται μεταβλητές",
    "tag": "Tag",
    "drag-and-drop-to-sort-the-plugins": "Drag and Drop για την ταξινόμηση των plugins.",
    "seo": "SEO",
    "documentation": "Documentation",
    "forum-support": "Forum υποστήριξης",
    "chat-support": "Chat υποστήριξης",
    "quick-links": "Γρήγορα links",
    "leave-empty-for-autocomplete-by-ezcms": "Αφήστε το κενό για αυτόματη συμπλήρωση από το EzCMS.",
    "choose-a-password-for-the-admin-user": "Επιλέξτε κωδικό πρόσβασης για το χρήστη <code>admin<\/code>",
    "access-denied": "Πρόσβαση μη επιτρεπτή",
    "choose-images-to-upload": "Επιλέξτε τις εικόνες για ανέβασμα",
    "insert": "Εισαγωγή",
    "upload": "Ανέβασμα",
    "autosave": "Αυτόματη αποθήκευση",
    "the-content-is-saved-as-a-draft-to-publish-it": "Το περιεχόμενο αποθηκεύτηκε ως πρόχειρο. Για την δημοσίευσή του κάντε κλικ στο κουμπί <b>Publish<\/b> ή αν το επεξεργάζεστε ακόμα πατήστε στο <b>Save as draft<\/b>.",
    "site": "Ιστοσελίδα",
    "first": "Αρχή",
    "last": "Τέλος",
    "there-are-no-pages-at-this-moment": "Δεν υπάρχουν σελίδες αυτή τη στιγμή.",
    "there-are-no-static-pages-at-this-moment": "Δεν υπάρχουν static σελίδες αυτή τη στιγμή.",
    "there-are-no-draft-pages-at-this-moment": "Δεν υπάρχουν πρόχειρες σελίδες αυτή τη στιγμή.",
    "good-morning": "Καλημέρα!",
    "good-afternoon": "Καλησπέρα",
    "good-evening": "Καλησπέρα",
    "good-night": "Καληνύχτα",
    "hello": "Γεια",
    "there-are-no-images-for-the-page": "There are no images for the page.",
    "select-cover-image": "Select cover image",
    "this-plugin-depends-on-the-following-plugins": "Αυτό το plugin εξαρτάται από τα ακόλουθα plugins.",
    "no-pages-found": "Δεν βρέθηκαν σελίδες",
    "system-updated": "Το σύστημα ενημερώθηκε",
    "security": "Ασφάλεια",
    "remove-cover-image": "Διαγραφή cover image",
    "width": "Πλάτος",
    "height": "Ύψος",
    "quality": "Ποιότητα",
    "thumbnails": "Μικρογραφίες",
    "thumbnail": "Μικρογραφία",
    "thumbnail-width-in-pixels": "Πλάτος μικρογραφίας σε pixels (px).",
    "thumbnail-height-in-pixels": "Ύψος μικρογραφίας σε pixels (px).",
    "thumbnail-quality-in-percentage": "Ποιότητα μικρογραφίας σε ποσοστό (%).",
    "maximum-load-file-size-allowed:": "Μέγιστο επιτρεπόμενο μέγεθος αρχείου:",
    "file-type-is-not-supported": "Ο τύπος του αρχείου δεν υποστηρίζεται. Επιτρεπόμενοι τύποι:",
    "page-content": "Περιεχόμενο σελίδας",
    "markdown-parser": "Markdown parser",
    "site-logo": "Logo ιστοσελίδας",
    "search": "Αναζήτηση",
    "search-plugins": "Αναζήτηση plugins",
    "enabled-plugins": "Ενεργοποιημένα plugins",
    "disabled-plugins": "Απενεργοποιημένα plugins",
    "remove-logo": "Διαγραφή logo",
    "preview": "ΠροεπισκόπησηPreview",
    "author-can-write-and-edit-their-own-content": "Author: Μπορεί να γράψει και να τροποποιήσει το περιεχόμενό του. Editor: Μπορεί να γράψει και να τροποποιήσει το περιεχόμενο και από άλλους.",
    "custom-fields": "Custom fields",
    "define-custom-fields-for-the-content": "Ορισμός custom fields για το περιεχόμενο. Μάθε περισσότερα για τα custom fields στο <a href='https:\/\/ezcms.net/docs\/en\/content\/custom-fields'>documentation<\/a>.",
    "start-typing-to-see-a-list-of-suggestions": "Ξεκίνα την πληκτρολόγηση και θα δεις μια λίστα προτάσεων.",
    "view": "Προβολή"
}
