{
    "language-data": {
        "native": "Nederlands",
        "english-name": "Dutch",
        "last-update": "2019-06-06",
        "authors": [
            "Ray",
            "ltGuillaume"
        ]
    },
    "dates": {
        "Mon": "Ma",
        "Tue": "Di",
        "Wed": "Wo",
        "Thu": "Do",
        "Fri": "Vr",
        "Sat": "Za",
        "Sun": "Zo",
        "Monday": "Maandag",
        "Tuesday": "Dinsdag",
        "Wednesday": "Woensdag",
        "Thursday": "Donderdag",
        "Friday": "Vrijdag",
        "Saturday": "Zaterdag",
        "Sunday": "Zondag",
        "Jan": "Jan",
        "Feb": "Feb",
        "Mar": "Mar",
        "Apr": "Apr",
        "Jun": "Jun",
        "Jul": "Jul",
        "Aug": "Aug",
        "Sep": "Sep",
        "Oct": "Okt",
        "Nov": "Nov",
        "Dec": "Dec",
        "January": "Januari",
        "February": "Februari",
        "March": "Maart",
        "April": "April",
        "May": "Mei",
        "June": "Juni",
        "July": "Juli",
        "August": "Augustus",
        "September": "September",
        "October": "Oktober",
        "November": "November",
        "December": "December"
    },
    "dashboard": "Dashboard",
    "manage-users": "Gebruikersbeheer",
    "manage-categories": "Categorieën beheren",
    "general-settings": "Algemene instellingen",
    "advanced-settings": "Geavanceerde instellingen",
    "thanks-for-supporting-ezcms": "Bedankt voor de ondersteuning van EzCMS",
    "upgrade-to-ezcms-pro": "Upgraden naar EzCMS PRO",
    "language": "Taal",
    "plugin": "Plugin",
    "plugins": "Plugins",
    "developers": "Ontwikkelaars",
    "themes": "Thema's",
    "about": "Over ons",
    "url": "URL",
    "welcome": "Welkom",
    "logout": "Afmelden",
    "website": "Website",
    "publish": "Gepubliceerd",
    "manage": "Beheer",
    "content": "Inhoud",
    "category": "Categorie",
    "categories": "Categorieën",
    "users": "Gebruikers",
    "settings": "Instellingen",
    "general": "Algemeen",
    "advanced": "Geavanceerd",
    "new-content": "Nieuwe inhoud",
    "manage-content": "Inhoud beheren",
    "add-new-content": "Nieuwe inhoud tovoegen",
    "new-category": "Nieuwe categorie",
    "you-do-not-have-sufficient-permissions": "Onvoldoende rechten voor deze opdracht",
    "add-a-new-user": "Nieuwe gebruiker toevoegen",
    "url-associated-with-the-content": "URL voor deze inhoud.",
    "language-and-timezone": "Taal en tijdzone",
    "change-your-language-and-region-settings": "Instellingen voor taal en regio aanpassen.",
    "notifications": "Notificaties",
    "plugin-activated": "Plugin ingeschakeld",
    "plugin-deactivated": "Plugin uitgeschakeld",
    "new-theme-configured": "Nieuw thema geconfigureerd",
    "settings-changes": "Instellingen aangepast",
    "plugin-configured": "Plugin geconfigureerd",
    "welcome-to-ezcms": "Welkom bij EzCMS",
    "statistics": "Statistieken",
    "drafts": "Concepten",
    "title": "Titel",
    "save": "Opslaan",
    "save-as-draft": "Als concept opslaan",
    "cancel": "Annuleren",
    "description": "Omschrijving",
    "this-field-can-help-describe-the-content": "Dit veld kan gebruikt worden om de inhoud kort te omschrijven. Niet meer dan 150 karakters.",
    "images": "Afbeeldingen",
    "error": "Fout",
    "supported-image-file-types": "Ondersteunde afbeeldingsformaten",
    "cover-image": "Omslagfoto",
    "drag-and-drop-or-click-here": "Sleep hierheen of klik hier",
    "there-are-no-images": "Er zijn geen afbeeldingen",
    "upload-and-more-images": "Uploaden en meer afbeeldingen",
    "click-on-the-image-for-options": "Klik op de afbeelding voor opties.",
    "click-here-to-cancel": "Klik hier om te annuleren.",
    "insert-image": "Afbeelding invoegen",
    "set-as-cover-image": "Als omslagfoto instellen",
    "delete-image": "Afbeelding verwijderen",
    "tags": "Tags",
    "add": "Toevoegen",
    "status": "Status",
    "published": "Gepubliceerd",
    "draft": "Concept",
    "empty-title": "Geen titel",
    "empty": "leeg",
    "date": "Datum",
    "external-cover-image": "Externe omslagfoto",
    "parent": "Bovenliggend item",
    "full-image-url": "Volledige afbeelding URL.",
    "this-field-is-used-when-you-order-the-content-by-position": "Dit veld wordt gebruikt wanneer de inhoud op positie is gesorteerd.",
    "position": "Positie",
    "friendly-url": "Gebruiksvriendelijke URL",
    "image-description": "Omschrijving voor afbeelding",
    "add-a-new-category": "Nieuwe categorie toevoegen",
    "name": "Naam",
    "username": "Gebruikersnaam",
    "first-name": "Voornaam",
    "last-name": "Achternaam",
    "to-schedule-the-content-select-the-date-and-time": "Selecteer de datum en tijd om de publicatie in te plannen. De status moet worden ingesteld op \"Gepubliceerd\".",
    "email": "E-mail",
    "role": "Rol",
    "registered": "Geregistreerd",
    "site-information": "Informatie site",
    "site-title": "Titel van de site",
    "use-this-field-to-name-your-site": "Titel van de site (wordt op iedere pagina getoond).",
    "site-slogan": "Slogan voor de site",
    "use-this-field-to-add-a-catchy-phrase": "Voer een catchy slogan in voor de site.",
    "site-description": "Omschrijving van de site",
    "you-can-add-a-site-description-to-provide": "Korte omschrijving van de site.",
    "footer-text": "Voettekst",
    "you-can-add-a-small-text-on-the-bottom": "Plaats hier een korte tekst (bijvoorbeeld de copyright, datum of merknaam)",
    "social-networks-links": "Link sociale media",
    "site-url": "URL van de site",
    "email-account-settings": "Instellingen E-mailaccount",
    "sender-email": "Afzender",
    "emails-will-be-sent-from-this-address": "E-mails zullen vanaf dit adres verzonden worden.",
    "url-filters": "URL-filters",
    "select-your-sites-language": "Selecteer de taal.",
    "timezone": "Tijdzone",
    "select-a-timezone-for-a-correct": "Selecteer de tijdzone.",
    "locale": "Lokaal",
    "date-and-time-formats": "Formaat datum en tijd",
    "date-format": "Formaat datums",
    "current-format": "Huidig formaat",
    "version": "Versie",
    "author": "Auteur",
    "activate": "Activeren",
    "deactivate": "Deactiveren",
    "edit-category": "Categorie aanpassen",
    "delete": "Verwijderen",
    "password": "Wachtwoord",
    "confirm-password": "Bevestig wachtwoord",
    "editor": "Editor",
    "administrator": "Beheerder",
    "edit-user": "Gebruiker aanpassen",
    "edit-content": "Inhoud aanpassen",
    "profile": "Profiel",
    "change-password": "Wachtwoord veranderen",
    "enabled": "Ingeschakeld",
    "disable-the-user": "Gebruiker deactiveren",
    "profile-picture": "Profielfoto",
    "edit-or-delete-your-categories": "Categorieën aanpassen of verwijderen",
    "create-a-new-category-to-organize-your-content": "Maak een nieuwe categorie aan om de inhoud te organiseren",
    "confirm-delete-this-action-cannot-be-undone": "Bevestig het verwijderen, dit kan niet ongedaan worden gemaakt.",
    "do-you-want-to-disable-the-user": "Gebruiker deactiveren?",
    "new-password": "Nieuw wachtwoord",
    "you-can-change-this-field-when-save-the-current-changes": "U kunt dit veld pas wijzigen nadat de huidige wijzigingen zijn opgeslagen.",
    "items-per-page": "Items per pagina",
    "invite-a-friend-to-collaborate-on-your-site": "Nodig een vriend uit om samen te werken op uw site",
    "number-of-items-to-show-per-page": "Aantal items dat per pagina wordt weergegeven.",
    "website-or-blog": "Website of Blog",
    "order-content-by": "Inhoud sorteren op",
    "edit-or-delete-content-from-your-site": "Inhoud aanpassen of verwijderen van de website",
    "order-the-content-by-date-to-build-a-blog": "Sorteer de inhoud op datum om een Blog te maken, sorteer op positie om een Website te bouwen.",
    "page-not-found-content": "Het lijkt erop dat deze pagina niet bestaat.",
    "page-not-found": "Pagina niet gevonden",
    "predefined-pages": "Voorgedefinieerde pagina's",
    "returning-page-when-the-page-doesnt-exist": "Pagina die gebruikt wordt wanneer de gezochte pagina niet bestaat. Laat dit leeg als u een standaardbericht wilt tonen.",
    "returning-page-for-the-main-page": "Pagina die gebruikt wordt als hoofdpagina. Laat dit leeg als u de meest recente inhoud op de hoofdpagina wilt tonen.",
    "full-url-of-your-site": "Volledige URL van uw site, compleet met het protocol HTTP of HTTPS (alleen als u SSL op uw server hebt ingeschakeld).",
    "with-the-locales-you-can-set-the-regional-user-interface": "Met de taalinstellingen kunt u de regionale gebruikersinterface instellen, zoals de datums in uw taal. De landinstellingen moeten op uw systeem zijn geïnstalleerd.",
    "ezcms-installer": "EzCMS Installatieprogramma",
    "choose-your-language": "Selecteer de gewenste taal",
    "next": "Volgende",
    "complete-the-form-choose-a-password-for-the-username-admin": "Vul het formulier in en kies een wachtwoord voor de gebruikersnaam « admin »",
    "show-password": "Wachtwoord tonen",
    "install": "Installeren",
    "login": "Inloggen",
    "back-to-login-form": "Terug naar inlogformulier",
    "get-login-access-code": "Toegangscode opvragen",
    "email-access-code": "Toegangscode mailen",
    "whats-next": "Vervolgstappen",
    "username-or-password-incorrect": "Gebruikersnaam of wachtwoord is onjuist",
    "follow-ezcms-on": "Volg EzCMS via",
    "this-is-a-brief-description-of-yourself-our-your-site": "Dit is een korte omschrijving van uzelf of uw site. Ga om de tekst te veranderen naar Administratiepaneel, Instellingen, Plugins en configureer de plugin \"Over mij\".",
    "new-version-available": "Nieuwe versie beschikbaar",
    "new-category-created": "Nieuwe categorie aangemaakt",
    "category-deleted": "Categorie verwijderd",
    "category-edited": "Categorie aangepast",
    "new-user-created": "Nieuwe gebruiker aangemaakt",
    "user-edited": "Gebruiker aangepast",
    "user-deleted": "Gebruiker verwijderd",
    "recommended-for-recovery-password-and-notifications": "Aanbevolen voor wachtwoordherstel en notificaties.",
    "authentication-token": "Authenticatietoken",
    "token": "Token",
    "current-status": "Huidige status",
    "upload-image": "Afbeelding uploaden",
    "the-changes-have-been-saved": "De veranderingen zijn opgeslagen",
    "label": "Label",
    "links": "Links",
    "this-title-is-almost-always-used-in-the-sidebar-of-the-site": "Deze titel wordt bijna altijd gebruikt in de zijbalk van de site.",
    "password-must-be-at-least-6-characters-long": "Wachtwoord moet minimaal 6 tekens bevatten",
    "ip-address-has-been-blocked": "IP-adres is geblokkeerd.",
    "try-again-in-a-few-minutes": "Probeer het over enkele minuten opnieuw.",
    "content-published-from-scheduler": "Inhoud gepubliceerd volgens planning",
    "blog": "Blog",
    "complete-all-fields": "Vul alle velden in",
    "static": "Statisch",
    "about-your-site-or-yourself": "Over u of uw site",
    "homepage": "Startpagina",
    "disabled": "Uitgeschakeld",
    "to-enable-the-user-you-must-set-a-new-password": "Stel een nieuw wachtwoord in om de gebruiker in te schakelen.",
    "delete-the-user-and-associate-his-content-to-admin-user": "Verwijder de gebruiker en koppel de inhoud van de gebruiker aan de beheerdersaccount",
    "delete-the-user-and-all-his-content": "Verwijder de gebruiker inclusief de inhoud van de gebruiker",
    "user-disabled": "Gebruiker uitgeschakeld",
    "user-password-changed": "Wachtwoord gebruiker veranderd",
    "the-password-and-confirmation-password-do-not-match": "Het wachtwoord en de bevestiging komen niet overeen",
    "scheduled-content": "Geplande inhoud",
    "there-are-no-scheduled-content": "Er is geen ingeplande inhoud.",
    "new-content-created": "Nieuwe inhoud aangemaakt",
    "content-edited": "Inhoud aangepast",
    "content-deleted": "Inhoud verwijderd",
    "undefined": "Niet opgegeven",
    "create-new-content-for-your-site": "Maak nieuwe inhoud voor de site",
    "order-items-by": "Items sorteren op",
    "all-content": "Alle inhoud",
    "dynamic": "Dynamisch",
    "type": "Type",
    "draft-content": "Concepten",
    "post": "Plaatsen",
    "default": "Standaard",
    "latest-content": "Recente inhoud",
    "default-message": "Standaardbericht",
    "no-parent": "Geen bovenliggend item",
    "have-you-seen-my-ball": "Heb jij mijn bal gezien?",
    "pagebreak": "Pagina-einde",
    "pages": "Pagina",
    "this-plugin-may-not-be-supported-by-this-version-of-ezcms": "Deze plugin kan niet worden ondersteund door deze versie van EzCMS",
    "previous": "Vorige",
    "previous-page": "Vorige pagina",
    "next-page": "Volgende pagina",
    "scheduled": "Ingepland",
    "this-token-is-similar-to-a-password-it-should-not-be-shared": "Deze token is gelijk aan een wachtwoord en dient daarom niet gedeeld te worden.",
    "congratulations-you-have-successfully-installed-your-own-copy-of-ezcms": "Gefeliciteerd! EzCMS is nu geïnstalleerd.",
    "this-theme-may-not-be-supported-by-this-version-of-ezcms": "Dit thema wordt mogelijk niet ondersteund door deze versie van EzCMS",
    "read-more": "Lees verder",
    "remember-me": "Onthouden",
    "plugins-position": "Positie plugin",
    "plugins-sorted": "Plugins gesorteerd",
    "plugins-position-changed": "Positie plugin aangepast",
    "drag-and-drop-to-set-the-position-of-the-plugin": "Sleep de plugins in de gewenste positie",
    "change-the-position-of-the-plugins": "Positie van de plugins aanpassen",
    "reading-time": "Geschatte leestijd",
    "minutes": "minuten",
    "minute": "minuut",
    "example-page-1-slug": "create-your-own-content",
    "example-page-1-title": "Create your own content",
    "example-page-1-content": "Start writing your own content or edit the current to fit your needs. To create, edit or remove content you need to login to the <a href=\".\/admin\/\">admin panel<\/a> with the username `admin` and the password you set on the installation process.",
    "example-page-2-slug": "setup-your-new-site",
    "example-page-2-title": "Setup your new site",
    "example-page-2-content": "Update the settings of your site from your <a href=\".\/admin\/\">admin panel<\/a>. You can change the title, description and social networks from Settings: General.",
    "example-page-3-slug": "follow-ezcms",
    "example-page-3-title": "Follow EzCMS",
    "example-page-3-content": "Get information, and news about new releases, themes or new plugins by visiting the <a href=\"https:\/\/ezcms.net/blogs\" target=\"_blank\">EzCMS Blog<\/a>.",
    "example-page-4-slug": "over",
    "example-page-4-title": "Over",
    "example-page-4-content": "Your About page is typically one of the most visited pages on your site. It should be simple, with a few key things; such as your name, who are you, how to contact you, and maybe a small story, etc...",
    "the-extension-zip-is-not-installed": "De PHP-extensie \"zip\" is niet geïnstalleerd of ingeschakeld. Installeer deze extensie om gebruik te kunnen maken van deze plugin.",
    "there-are-no-sticky-pages-at-this-moment": "Er zijn geen vastgezette pagina's.",
    "there-are-no-scheduled-pages-at-this-moment": "Er zijn geen pagina's met geplande publicatie.",
    "update": "Updaten",
    "template": "Sjabloon",
    "nickname": "Roepnaam",
    "disable-user": "Gebruiker uitschakelen",
    "delete-user-and-keep-content": "Gebruiker verwijderen en inhoud van de gebruiker behouden",
    "delete-user-and-delete-content": "Gebruiker inclusief inhoud verwijderen (pas op!)",
    "social-networks": "Sociale netwerken",
    "interval": "Interval",
    "number-in-minutes-for-every-execution-of-autosave": "Aantal minuten tussen automatisch opslaan.",
    "extreme-friendly-url": "Extreem gebruiksvriendelijke URL",
    "title-formats": "Formaten voor titels",
    "delete-content": "Inhoud verwijderen",
    "are-you-sure-you-want-to-delete-this-page": "Deze pagina verwijderen?",
    "sticky": "Vastgezet",
    "actions": "Acties",
    "edit": "Bewerken",
    "options": "Opties",
    "enter-title": "Voer titel in",
    "media-manager": "Mediabeheer",
    "set-a-cover-image-from-external-url,-such-as-a-cdn-or-some-server-dedicated-for-images": "Gebruik een externe URL voor de omslagfoto, zoals een CDN of andere speciale server voor afbeeldingen.",
    "user": "Gebruiker",
    "date-format-format": "Formaat datums: <code>YYYY-MM-DD Hours:Minutes:Seconds<\/code>",
    "start-typing-a-page-title-to-see-a-list-of-suggestions": "Voer de beginletters van een paginatitel in om een lijst met suggesties op te roepen.",
    "field-used-when-ordering-content-by-position": "Gebruikt wanneer de inhoud op positie is gesorteerd",
    "write-a-template-name-to-filter-the-page-in-the-theme-and-change-the-style-of-the-page": "Voer de naam van een sjabloon in indien het thema toestaat dat verschillende sjablonen worden toegewezen aan individuele pagina's.",
    "write-the-tags-separated-by-commas": "Voer tags in, gescheiden door een komma.",
    "apply-code-noindex-code-to-this-page": "<code>noindex<\/code> op deze pagina toepassen.",
    "this-tells-search-engines-not-to-show-this-page-in-their-search-results": "Dit geeft aan voor zoekmachines dat deze pagina niet mag worden opgenomen in hun zoekresultaten.",
    "apply-code-nofollow-code-to-this-page": "<code>nofollow<\/code> op deze pagina toepassen.",
    "this-tells-search-engines-not-to-follow-links-on-this-page": "Dit geeft aan voor zoekmachines dat links op deze pagina niet mogen worden gevolgd.",
    "apply-code-noarchive-code-to-this-page": "<code>noarchive<\/code> op deze pagina toepassen.",
    "this-tells-search-engines-not-to-save-a-cached-copy-of-this-page": "Dit geeft aan voor zoekmachines dat ze geen kopie van deze pagina mogen cachen.",
    "uncategorized": "Geen categorie",
    "done": "Voltooid",
    "delete-category": "Categorie verwijderen",
    "are-you-sure-you-want-to-delete-this-category?": "Deze categorie verwijderen?",
    "confirm-new-password": "Nieuw wachtwoord bevestigen",
    "the-nickname-is-almost-used-in-the-themes-to-display-the-author-of-the-content": "De roepnaam wordt gebruikt door thema's om de auteur van de inhoud weer te geven",
    "allow-unicode": "Unicode toestaan",
    "allow-unicode-characters-in-the-url-and-some-part-of-the-system": "Sta Unicode-tekens toe in de URL en enkele andere onderdelen van het systeem.",
    "variables-allowed": "Ondersteunde variabelen",
    "tag": "Tag",
    "drag-and-drop-to-sort-the-plugins": "Plugins sorten met slepen.",
    "seo": "SEO",
    "documentation": "Documentatie",
    "forum-support": "Ondersteuning via Forum",
    "chat-support": "Ondersteuning via Chat",
    "quick-links": "Snelle links",
    "leave-empty-for-autocomplete-by-ezcms": "Laat leeg voor auto-aanvullen door EzCMS.",
    "choose-a-password-for-the-admin-user": "Kies wachtwoord voor de gebruiker <code>admin<\/code>",
    "access-denied": "Geen toegang",
    "choose-images-to-upload": "Kies afbeeldingen om te uploaden",
    "insert": "Invoegen",
    "upload": "Uploaden",
    "autosave": "Automatisch opslaan",
    "the-content-is-saved-as-a-draft-to-publish-it": "De inhoud is opgeslagen als concept. Klik op <b>Gepubliceerd<\/b> om de pagina publiek te maken of op <b>Concept<\/b> om er later verder aan te werken.",
    "site": "Site",
    "first": "Eerste",
    "last": "Laatste",
    "there-are-no-pages-at-this-moment": "Er zijn geen pagina's.",
    "there-are-no-static-pages-at-this-moment": "Er zijn geen statische pagina's.",
    "there-are-no-draft-pages-at-this-moment": "Er zijn geen concepten.",
    "good-morning": "Goedemorgen",
    "good-afternoon": "Goedemiddag",
    "good-evening": "Goedenavond",
    "good-night": "Goedenavond",
    "hello": "Hallo",
    "there-are-no-images-for-the-page": "Er zijn geen afbeeldingen voor de pagina.",
    "select-cover-image": "Kies omslagfoto",
    "this-plugin-depends-on-the-following-plugins": "De plugin heeft de volgende afhankelijkheden:",
    "no-pages-found": "Geen pagina's gevonden.",
    "system-updated": "Systeem geüpdatet.",
    "security": "Beveiliging",
    "remove-cover-image": "Omslagfoto herstellen",
    "width": "Breedte",
    "height": "Hoogte",
    "quality": "Kwaliteit",
    "thumbnails": "Voorbeeldafbeeldingen",
    "thumbnail": "Voorbeeld",
    "thumbnail-width-in-pixels": "Breedte voorbeelden in pixels (px).",
    "thumbnail-height-in-pixels": "Hoogte voorbeelden in pixels (px).",
    "thumbnail-quality-in-percentage": "Kwaliteit voorbeelden in procenten (%).",
    "maximum-load-file-size-allowed:": "Maximale bestandsgrootte voor uploads:",
    "file-type-is-not-supported": "Dit bestandstype is niet toegestaan. Wel toegestaan zijn:",
    "page-content": "Inhoud pagina",
    "markdown-parser": "Markdown parser",
    "site-logo": "Logo website",
    "search": "Zoeken",
    "search-plugins": "Plugins zoeken",
    "enabled-plugins": "Ingeschakelde plugins",
    "disabled-plugins": "Uitgeschakelde plugins",
    "remove-logo": "Logo verwijderen",
    "preview": "Voorbeeld",
    "author-can-write-and-edit-their-own-content": "Auteur: Kan eigen inhoud creëren en bewerken. Editor: Kan ook de inhoud van andere gebruikers bewerken.",
    "custom-fields": "Eigen velden",
    "define-custom-fields-for-the-content": "Definieer eigen inhoudsvelden. Lees meer over eigen velden in de <a href='https:\/\/ezcms.net/docs\/en\/content\/custom-fields'>documentatie<\/a>.",
    "start-typing-to-see-a-list-of-suggestions": "Voer de beginletters in om een lijst met suggesties op te roepen.",
    "view": "Bekijken"
}
