{
    "language-data": {
        "native": "Português (Portugal)",
        "english-name": "Portuguese (Portugal)",
        "locale": "pt_PT",
        "last-update": "2020-02-03",
        "authors": [
            "Jacques Schlender (@jcqSCH)",
            "Ricardo Pinto",
            "João Botelho (@justjoao)",
            ""
        ]
    },
    "dates": {
        "Mon": "Seg",
        "Tue": "Ter",
        "Wed": "Qua",
        "Thu": "Qui",
        "Fri": "Sex",
        "Sat": "Sáb",
        "Sun": "Dom",
        "Monday": "Segunda-feira",
        "Tuesday": "Terça-feira",
        "Wednesday": "Quarta-feira",
        "Thursday": "Quinta-feira",
        "Friday": "Sexta-feira",
        "Saturday": "Sábado",
        "Sunday": "Domingo",
        "Jan": "Jan",
        "Feb": "Fev",
        "Mar": "Mar",
        "Apr": "Abr",
        "Jun": "Jun",
        "Jul": "Jul",
        "Aug": "Ago",
        "Sep": "Set",
        "Oct": "Out",
        "Nov": "Nov",
        "Dec": "Dez",
        "January": "Janeiro",
        "February": "Fevereiro",
        "March": "Março",
        "April": "Abril",
        "May": "Maio",
        "June": "Junho",
        "July": "Julho",
        "August": "Agosto",
        "September": "Setembro",
        "October": "Outubro",
        "November": "Novembro",
        "December": "Dezembro"
    },
    "dashboard": "Painel de Controlo",
    "manage-users": "Gerir utilizadores",
    "manage-categories": "Gerir categorias",
    "general-settings": "Ajustes gerais",
    "advanced-settings": "Ajustes avançados",
    "thanks-for-supporting-ezcms": "Obrigado por apoiar o EzCMS",
    "upgrade-to-ezcms-pro": "Adquirir EzCMS PRO",
    "language": "Idioma",
    "plugin": "Plugin",
    "plugins": "Plugins",
    "developers": "Desenvolvedores",
    "themes": "Temas",
    "about": "Sobre",
    "url": "URL",
    "welcome": "Bem-vindo",
    "logout": "Sair",
    "website": "Site",
    "publish": "Publicar",
    "manage": "Gerir",
    "content": "Conteúdo",
    "category": "Categoria",
    "categories": "Categorias",
    "users": "Utilizadores",
    "settings": "Ajustes",
    "general": "Geral",
    "advanced": "Avançado",
    "new-content": "Novo conteúdo",
    "manage-content": "Gerir conteúdo",
    "add-new-content": "Adicionar novo conteúdo",
    "new-category": "Nova categoria",
    "you-do-not-have-sufficient-permissions": "Não tem permissões suficientes para esta ação",
    "add-a-new-user": "Criar novo utilizador",
    "url-associated-with-the-content": "URL associado ao conteúdo",
    "language-and-timezone": "Idioma e fuso horário",
    "change-your-language-and-region-settings": "Ajustar o idioma e a região",
    "notifications": "Notificações",
    "plugin-activated": "Plugin activado",
    "plugin-deactivated": "Plugin desactivado",
    "new-theme-configured": "Novo tema configurado",
    "settings-changes": "Alterações nos ajustes",
    "plugin-configured": "Plugin configurado",
    "welcome-to-ezcms": "Bem-vindo ao EzCMS",
    "statistics": "Estatísticas",
    "drafts": "Rascunhos",
    "title": "Título",
    "save": "Guardar",
    "save-as-draft": "Guardar como rascunho",
    "cancel": "Cancelar",
    "description": "Descrição",
    "this-field-can-help-describe-the-content": "Este campo ajuda a descrever o conteúdo em poucas palavras",
    "images": "Imagens",
    "error": "Erro",
    "supported-image-file-types": "Tipos de ficheiros de imagem suportados",
    "cover-image": "Imagem da capa",
    "drag-and-drop-or-click-here": "Arraste e solte ou clique aqui",
    "there-are-no-images": "Não há imagens",
    "upload-and-more-images": "Carregar imagens e mais opções",
    "click-on-the-image-for-options": "Clique na imagem para ver as opções",
    "click-here-to-cancel": "Clique aqui para cancelar",
    "insert-image": "Inserir imagem",
    "set-as-cover-image": "Definir como imagem de capa",
    "delete-image": "Apagar imagem",
    "tags": "Etiquetas",
    "add": "Adicionar",
    "status": "Estado",
    "published": "Publicado",
    "draft": "Rascunho",
    "empty-title": "Título vazio",
    "empty": "Vazio",
    "date": "Data",
    "external-cover-image": "Imagem de capa externa",
    "parent": "Item superior",
    "full-image-url": "URL completo da imagem.",
    "this-field-is-used-when-you-order-the-content-by-position": "Este campo é utilizado quando se ordena o conteúdo por posição.",
    "position": "Posição",
    "friendly-url": "URL amigável",
    "image-description": "Descrição da imagem",
    "add-a-new-category": "Adicionar nova categoria",
    "name": "Nome",
    "username": "Utilizador",
    "first-name": "Primeiro nome",
    "last-name": "Apelido",
    "to-schedule-the-content-select-the-date-and-time": "Para agendar a publicação de conteúdo, marque a data e hora. Atente-se que o estado necessita estar marcado como \"Publicado\".",
    "email": "E-mail",
    "role": "Função",
    "registered": "Registado",
    "site-information": "Informação do site",
    "site-title": "Titulo do site",
    "use-this-field-to-name-your-site": "Use este campo para nomear o teu site. Este nome aparecerá no topo das páginas.",
    "site-slogan": "Slogan do site",
    "use-this-field-to-add-a-catchy-phrase": "Use este campo para adicionar uma frase que dê personalidade ao site.",
    "site-description": "Descrição do site",
    "you-can-add-a-site-description-to-provide": "Sugere-se adicionar um pequeno texto que descreva os assuntos tratados no site.",
    "footer-text": "Texto do radapé",
    "you-can-add-a-small-text-on-the-bottom": "Sugere-se adicionar um pequeno texto para exibir na parte debaixo do site, o qual contenha informações de copyright, proprietário, ano de fundação, local, etc.",
    "social-networks-links": "Links de redes sociais",
    "site-url": "URL do site",
    "email-account-settings": "Ajustar conta de e-mail",
    "sender-email": "E-mail do remetente",
    "emails-will-be-sent-from-this-address": "Os e-mails serão enviados a partir deste endereço.",
    "url-filters": "Filtros de URL",
    "select-your-sites-language": "Selecione o idioma do site.",
    "timezone": "Fuso horário",
    "select-a-timezone-for-a-correct": "Selecione o fuso horário da região para que datas e horas sejam exibidas corretamente no site.",
    "locale": "Local",
    "date-and-time-formats": "Formatos de data e hora",
    "date-format": "Formato da data",
    "current-format": "Formato actual",
    "version": "Versão",
    "author": "Autor",
    "activate": "Activar",
    "deactivate": "Desactivar",
    "edit-category": "Editar categoria",
    "delete": "Apagar",
    "password": "Senha",
    "confirm-password": "Confirmar senha",
    "editor": "Editor",
    "administrator": "Administrador",
    "edit-user": "Editar utilizador",
    "edit-content": "Editar conteúdo",
    "profile": "Perfil",
    "change-password": "Alterar senha",
    "enabled": "Activado",
    "disable-the-user": "Desactivar o utilizador",
    "profile-picture": "Foto do perfil",
    "edit-or-delete-your-categories": "Editar ou apagar categorias",
    "create-a-new-category-to-organize-your-content": "Criar nova categoria para organizar o conteúdo",
    "confirm-delete-this-action-cannot-be-undone": "Confirme que quer apagar? Após confirmar não será possível anular esta acção.",
    "do-you-want-to-disable-the-user": "Confirmas que vais desactivar o utilizador?",
    "new-password": "Nova senha",
    "you-can-change-this-field-when-save-the-current-changes": "Poderás alterar este campo após guardar as alterações actuais.",
    "items-per-page": "Itens por página",
    "invite-a-friend-to-collaborate-on-your-site": "Convidar um amigo para colaborar no teu site",
    "number-of-items-to-show-per-page": "Número de publicações a exibir em cada página.",
    "website-or-blog": "Site ou Blog",
    "order-content-by": "Ordenar conteúdo por",
    "edit-or-delete-content-from-your-site": "Editar ou apagar conteúdo do teu site",
    "order-the-content-by-date-to-build-a-blog": "Ordene o conteúdo por data para construir um blog ou ordene o conteúdo por posição para construir um site.",
    "page-not-found-content": "Parece que a página solicitada não existe.",
    "page-not-found": "Página não encontrada",
    "predefined-pages": "Páginas predefinidas",
    "returning-page-when-the-page-doesnt-exist": "Quando a requisição do visitante não corresponder a um item existente, será exibida esta página. Por omissão, uma mensagem de alerta é exibida.",
    "returning-page-for-the-main-page": "Quando o visitante requisitar a página principal do site, será exibida a página aqui escolhida. Por omissão, as últimas publicações são exibidas.",
    "full-url-of-your-site": "URL completo do teu site, contendo o protocolo HTTP ou HTTPS (apenas poderá conter HTTPS se houver SSL ligado no servidor).",
    "with-the-locales-you-can-set-the-regional-user-interface": "A partir dos locais é possível definir a tradução da interface para a respectiva região dos visitantes. Para isto, os locais devem estar instalados no sistema.",
    "ezcms-installer": "Instalador do EzCMS",
    "choose-your-language": "Escolha o idioma",
    "next": "Seguinte",
    "complete-the-form-choose-a-password-for-the-username-admin": "Preencha o formulário, escolha uma senha para o utilizador inicial que será nomeado <b>< admin ><\/b>",
    "show-password": "Exibir senha",
    "install": "Instalar",
    "login": "Entrar",
    "back-to-login-form": "Voltar ao formulário de início de sessão",
    "get-login-access-code": "Obter o código de acesso de início de sessão",
    "email-access-code": "Código de acesso via e-mail",
    "whats-next": "O que se segue",
    "username-or-password-incorrect": "Utilizador incorrecto ou senha incorrecta",
    "follow-ezcms-on": "Seguir EzCMS em",
    "this-is-a-brief-description-of-yourself-our-your-site": "Neste espaço é exibida uma breve descrição do seu site ou de si mesmo. Para alterar este texto, vá ao Painel de Controlo, ajustes, plugins, e altere o plugin About.",
    "new-version-available": "Nova versão disponível",
    "new-category-created": "Nova categoria criada",
    "category-deleted": "Categoria apagada",
    "category-edited": "Categoria editada",
    "new-user-created": "Novo utilizador criado",
    "user-edited": "Utilizador editado",
    "user-deleted": "Utilizador apagado",
    "recommended-for-recovery-password-and-notifications": "Recomendado para recuperação de senha e notificações.",
    "authentication-token": "Token de autenticação",
    "token": "Token",
    "current-status": "Estado actual",
    "upload-image": "Carregar imagem",
    "the-changes-have-been-saved": "As alterações foram guardadas",
    "label": "Identificador",
    "links": "Links",
    "this-title-is-almost-always-used-in-the-sidebar-of-the-site": "Este título é quase sempre usado na barra lateral do site.",
    "password-must-be-at-least-6-characters-long": "A senha deve conter pelo menos 6 caracteres",
    "ip-address-has-been-blocked": "O endereço IP foi bloqueado.",
    "try-again-in-a-few-minutes": "Tente novamente em alguns minutos.",
    "content-published-from-scheduler": "Conteúdo publicado através de agendamento",
    "blog": "Blog",
    "complete-all-fields": "Preencha todos os campos",
    "static": "Estático",
    "about-your-site-or-yourself": "Descrição sobre o site ou sobre o autor",
    "homepage": "Página inicial",
    "disabled": "Desabilitado",
    "to-enable-the-user-you-must-set-a-new-password": "Para habilitar o utilizador, necessitas definir uma nova senha.",
    "delete-the-user-and-associate-his-content-to-admin-user": "Apagar o utilizador e associar todo o conteúdo remanescente dele à conta do administrador",
    "delete-the-user-and-all-his-content": "Apagar o utilizador e também todo conteúdo remanescente dele",
    "user-disabled": "Utilizador desabilitado",
    "user-password-changed": "Senha do utilizador alterada",
    "the-password-and-confirmation-password-do-not-match": "A senha e a confirmação de senha não são iguais",
    "scheduled-content": "Conteúdo agendado",
    "there-are-no-scheduled-content": "Não há conteúdo agendado",
    "new-content-created": "Novo conteúdo criado",
    "content-edited": "Conteúdo editado",
    "content-deleted": "Conteúdo apagado",
    "undefined": "Indefinido",
    "create-new-content-for-your-site": "Criar novo conteúdo para o teu site",
    "order-items-by": "Ordenar itens por",
    "all-content": "Todo conteúdo",
    "dynamic": "Dinâmico",
    "type": "Tipo",
    "draft-content": "Conteúdo como rascunho",
    "post": "Publicação",
    "default": "Por omissão",
    "latest-content": "Últimas publicações",
    "default-message": "Mensagem por omissão",
    "no-parent": "Sem item superior",
    "have-you-seen-my-ball": "Por acaso viste a minha bola?",
    "pagebreak": "Quebra de página",
    "pages": "Páginas",
    "this-plugin-may-not-be-supported-by-this-version-of-ezcms": "Há a possibilidade deste plugin não ser compatível com a tua versão do EzCMS",
    "previous": "Anterior",
    "previous-page": "Página anterior",
    "next-page": "Página seguinte",
    "scheduled": "Agendado",
    "this-token-is-similar-to-a-password-it-should-not-be-shared": "Este token é similar à senha, portanto não partilhe com os outros",
    "congratulations-you-have-successfully-installed-your-own-copy-of-ezcms": "Parabéns! Instalaste o EzCMS com sucesso.",
    "this-theme-may-not-be-supported-by-this-version-of-ezcms": "Há a possibilidade deste tema não ser compatível com a tua versão do EzCMS",
    "read-more": "Continuar a ler",
    "remember-me": "Lembrar-me",
    "plugins-position": "Posições dos plugins",
    "plugins-sorted": "Plugins classificados",
    "plugins-position-changed": "As posições dos plugins foram alteradas",
    "drag-and-drop-to-set-the-position-of-the-plugin": "Arraste e solte para definir as posições dos plugins",
    "change-the-position-of-the-plugins": "Alterar as posições dos plugins",
    "reading-time": "Tempo de leitura",
    "minutes": "minutos",
    "minute": "minuto",
    "example-page-1-slug": "crie-o-teu-proprio-conteudo",
    "example-page-1-title": "Crie o teu próprio conteúdo",
    "example-page-1-content": "Comece a escrever o teu próprio conteúdo ou então edite o conteúdo existente, conforme a tua necessidade. Para criar, editar ou apagar conteúdo, necessitarás iniciar sessão no [Painel de Controlo](.\/admin). Lá, insira o utilizador `admin` e a senha escolhida por ti na instalação do EzCMS.",
    "example-page-2-slug": "Siga-aos-ajustes-do-teu-site",
    "example-page-2-title": "Siga aos ajustes do teu site",
    "example-page-2-content": "Actualize os ajustes do site através [Painel de Controlo](.\/admin). Por lá é possível alterar o título, descrição e redes sociais que desejares expor no site. Para tal, proceda em [Ajustes > Geral](.\/admin\/settings).",
    "example-page-3-slug": "siga-os-meios-de-comunicacao-oficiais-do-ezcms",
    "example-page-3-title": "Siga os meios de comunicação oficiais do EzCMS",
    "example-page-3-content": "Receberás notícias, avisos sobre actualizações, novos temas e plugins através das redes sociais do EzCMS: <a href=\"https:\/\/www.facebook.com\/ezcms\/\" target=\"_blank\">Facebook<\/a>, <a href=\"https:\/\/www.twitter.com\/ezcms\/\" target=\"_blank\">Twitter<\/a> e <a href=\"https:\/\/www.youtube.com\/c\/EzCMScms\" target=\"_blank\">YouTube<\/a>. Veja também o <a href=\"https:\/\/ezcms.net/blogs\" target=\"_blank\">Blog<\/a> oficial.",
    "example-page-4-slug": "sobre",
    "example-page-4-title": "Sobre",
    "example-page-4-content": "A página Sobre habitualmente é uma das páginas mais visitadas dos sites. Sugere-se inserir informações de bastante interesse do público. Assuntos como: quem é o autor do projeto, qual a equipa que compõe o site, motivações para o projeto existir, meios para contactar a equipa do site, etc.",
    "the-extension-zip-is-not-installed": "A extensão zip não está instalada, para usar este plugin é necessário instalar a extensão ZIP.",
    "there-are-no-sticky-pages-at-this-moment": "Neste momento não há páginas afixadas.",
    "there-are-no-scheduled-pages-at-this-moment": "Não há páginas agendadas neste momento",
    "update": "Update",
    "template": "Template",
    "nickname": "Nickname",
    "disable-user": "Desactivar utilizador",
    "delete-user-and-keep-content": "Apagar utilizador e manter conteúdo",
    "delete-user-and-delete-content": "Apagar utilizador e apagar conteúdo (Cuidado)",
    "social-networks": "Redes sociais",
    "interval": "Intervalo",
    "number-in-minutes-for-every-execution-of-autosave": "Número de minutos entre cada gravação automática (autosave).",
    "extreme-friendly-url": "URL extremamente amigável",
    "title-formats": "Formato dos títulos",
    "delete-content": "Apagar conteúdo",
    "are-you-sure-you-want-to-delete-this-page": "Tens a certeza que queres apagar esta página?",
    "sticky": "Afixado",
    "actions": "Acções",
    "edit": "Editar",
    "options": "Opções",
    "enter-title": "Insere o título",
    "media-manager": "Media Manager",
    "set-a-cover-image-from-external-url,-such-as-a-cdn-or-some-server-dedicated-for-images": "Define uma imagem de capa externa, como  de uma CDN ou dum servidor dedicado de imagens.",
    "user": "Utilizador",
    "date-format-format": "Formato da data: <code>YYYY-MM-DD Hours:Minutes:Seconds<\/code>",
    "start-typing-a-page-title-to-see-a-list-of-suggestions": "Começa a escrever o título duma página para ver uma lista de sugestões.",
    "field-used-when-ordering-content-by-position": "Campo usado quando se ordena o conteúdo por posição",
    "write-a-template-name-to-filter-the-page-in-the-theme-and-change-the-style-of-the-page": "Escreve o nome dum template para filtrar a página no tema e mudar o estilo da página.",
    "write-the-tags-separated-by-commas": "Escreve as tags separadas por vírgulas.",
    "apply-code-noindex-code-to-this-page": "Aplica <code>noindex<\/code> a esta página.",
    "this-tells-search-engines-not-to-show-this-page-in-their-search-results": "Isto diz aos motores de busca que esta página para não apresentar esta página nos seus resultados de pesquisa.",
    "apply-code-nofollow-code-to-this-page": "Aplicar <code>nofollow<\/code> a esta página.",
    "this-tells-search-engines-not-to-follow-links-on-this-page": "Isto diz aos motores de busca para não seguir os links nesta página.",
    "apply-code-noarchive-code-to-this-page": "Aplicar <code>noarchive<\/code> a esta página.",
    "this-tells-search-engines-not-to-save-a-cached-copy-of-this-page": "Isto diz aos motores de busca que não gravem uma cópia desta página na cache.",
    "uncategorized": "Não categorizado",
    "done": "Pronto",
    "delete-category": "Delete category",
    "are-you-sure-you-want-to-delete-this-category?": "Tens a certeza que queres apagar esta categoria?",
    "confirm-new-password": "Confirmar a nova senha",
    "the-nickname-is-almost-used-in-the-themes-to-display-the-author-of-the-content": "O nickname é usado em praticamente todos os temas para mostrar o autor do conteúdo",
    "allow-unicode": "Permitir Unicode",
    "allow-unicode-characters-in-the-url-and-some-part-of-the-system": "Permitir caracteres Unicode no URL e nalgumas partes do sistema.",
    "variables-allowed": "Variáveis permitidas",
    "tag": "Tag",
    "drag-and-drop-to-sort-the-plugins": "Arrastar (Drag and Drop) para re-ordenar os plugins.",
    "seo": "SEO",
    "documentation": "Documentação",
    "forum-support": "Forum support",
    "chat-support": "Chat support",
    "quick-links": "Links rápidos",
    "leave-empty-for-autocomplete-by-ezcms": "Deixar em branco para que o EzCMS preencha automáticamente.",
    "choose-a-password-for-the-admin-user": "Escolhe uma password para o utilizador <code>admin<\/code>",
    "access-denied": "Acesso não permitido",
    "choose-images-to-upload": "Escolhe imagens para upload",
    "insert": "Inserir",
    "upload": "Upload",
    "autosave": "Autosave",
    "the-content-is-saved-as-a-draft-to-publish-it": "O conteúdo está gravado como rascunho. Para publicar clica no butão  <b>Publicar<\/b>, ou caso ainda estejas a trabalhar no conteúdo clica em <b>Gravar como rascunho<\/b>.",
    "site": "Site",
    "first": "Primeiro",
    "last": "Último",
    "there-are-no-pages-at-this-moment": "Não há páginas de momento.",
    "there-are-no-static-pages-at-this-moment": "Não há páginas estáticas de momento.",
    "there-are-no-draft-pages-at-this-moment": "Não há rascunhos de momento.",
    "good-morning": "Bom dia",
    "good-afternoon": "Boa tarde",
    "good-evening": "Bom fim de tarde",
    "good-night": "Boa noite",
    "hello": "Olá",
    "there-are-no-images-for-the-page": "Não há imagens para esta página.",
    "select-cover-image": "Escolhe a imagem de capa",
    "this-plugin-depends-on-the-following-plugins": "Este plugin depende dos seguintes plugins.",
    "no-pages-found": "Não foi encontrada nenhuma página",
    "system-updated": "Sistema actualizado",
    "security": "Segurança",
    "remove-cover-image": "Remover imagem de capa",
    "width": "Largura",
    "height": "Altura",
    "quality": "Qualidade",
    "thumbnails": "Miniaturas",
    "thumbnail": "Miniatura",
    "thumbnail-width-in-pixels": "Largura da miniatura em pixels (px).",
    "thumbnail-height-in-pixels": "Altura da miniatura em pixels (px).",
    "thumbnail-quality-in-percentage": "Qualidade da miniatura em percentagem (%).",
    "maximum-load-file-size-allowed:": "Tamanho máximo permitido do ficheiro:",
    "file-type-is-not-supported": "Tipo de ficheiro não suportado. Tipos de ficheiro suportados:",
    "page-content": "Conteúdo da página",
    "markdown-parser": "Markdown parser",
    "site-logo": "Logótipo do site",
    "search": "Procurar",
    "search-plugins": "Procurar plugins",
    "enabled-plugins": "Plugins activados",
    "disabled-plugins": "Plugins desactivados",
    "remove-logo": "Remover logótipo",
    "preview": "Prever",
    "author-can-write-and-edit-their-own-content": "Autor: Pode escrever e editar os seus próprios conteúdos. Editor: Pode escrever e editar os seus próprios conteúdos e o dos outros.",
    "custom-fields": "Campos customizados",
    "define-custom-fields-for-the-content": "Define campos customizados para o teu conteúdo. Aprende mais sobre os campos customizados na <a href='https:\/\/ezcms.net/docs\/en\/content\/custom-fields'>documentação official (em inglês)<\/a>.",
    "start-typing-to-see-a-list-of-suggestions": "Começa a escrever para ver uma lista de sugestões.",
    "view": "Ver"
}
