{
    "language-data": {
        "native": "Tiếng Việt",
        "english-name": "Vietnamese",
        "last-update": "2016-11-15",
        "authors": [
            "Glossyweb",
            "",
            "",
            ""
        ]
    },
    "dates": {
        "Mon": "Mon",
        "Tue": "Tue",
        "Wed": "Wed",
        "Thu": "Thu",
        "Fri": "Fri",
        "Sat": "Sat",
        "Sun": "Sun",
        "Monday": "Monday",
        "Tuesday": "Tuesday",
        "Wednesday": "Wednesday",
        "Thursday": "Thursday",
        "Friday": "Friday",
        "Saturday": "Saturday",
        "Sunday": "Sunday",
        "Jan": "Jan",
        "Feb": "Feb",
        "Mar": "Mar",
        "Apr": "Apr",
        "Jun": "Jun",
        "Jul": "Jul",
        "Aug": "Aug",
        "Sep": "Sep",
        "Oct": "Oct",
        "Nov": "Nov",
        "Dec": "Dec",
        "January": "January",
        "February": "February",
        "March": "March",
        "April": "April",
        "May": "May",
        "June": "June",
        "July": "July",
        "August": "August",
        "September": "September",
        "October": "October",
        "November": "November",
        "December": "December"
    },
    "dashboard": "Dashboard",
    "manage-users": "Manage users",
    "manage-categories": "Manage categories",
    "general-settings": "General settings",
    "advanced-settings": "Advanced settings",
    "thanks-for-supporting-ezcms": "Thanks for support EzCMS",
    "upgrade-to-ezcms-pro": "Upgrade to EzCMS PRO",
    "language": "Language",
    "plugin": "Plugin",
    "plugins": "Plugins",
    "developers": "Developers",
    "themes": "Themes",
    "about": "About",
    "url": "URL",
    "welcome": "Welcome",
    "logout": "Log out",
    "website": "Website",
    "publish": "Publish",
    "manage": "Manage",
    "content": "Content",
    "category": "Category",
    "categories": "Categories",
    "users": "Users",
    "settings": "Settings",
    "general": "General",
    "advanced": "Advanced",
    "new-content": "New content",
    "manage-content": "Manage content",
    "add-new-content": "Add new content",
    "new-category": "New category",
    "you-do-not-have-sufficient-permissions": "You do not have sufficient permissions to access this page, contact the administrator.",
    "add-a-new-user": "Add a new user",
    "url-associated-with-the-content": "URL associated with the content.",
    "language-and-timezone": "Language and timezone",
    "change-your-language-and-region-settings": "Change your language and region settings.",
    "notifications": "Notifications",
    "plugin-activated": "Plugin activated",
    "plugin-deactivated": "Plugin deactivated",
    "new-theme-configured": "New theme configured",
    "settings-changes": "Changes on settings",
    "plugin-configured": "Plugin configured",
    "welcome-to-ezcms": "Welcome to EzCMS",
    "statistics": "Statistics",
    "drafts": "Drafts",
    "title": "Title",
    "save": "Save",
    "save-as-draft": "Save as draft",
    "cancel": "Cancel",
    "description": "Description",
    "this-field-can-help-describe-the-content": "This field can help describe the content in a few words. No more than 150 characters.",
    "images": "Images",
    "error": "Error",
    "supported-image-file-types": "Supported image file types",
    "cover-image": "Cover image",
    "drag-and-drop-or-click-here": "Drag and drop or click here",
    "there-are-no-images": "There are no images",
    "upload-and-more-images": "Upload and more images",
    "click-on-the-image-for-options": "Click on the image for options.",
    "click-here-to-cancel": "Click here to cancel.",
    "insert-image": "Insert image",
    "set-as-cover-image": "Set as cover image",
    "delete-image": "Delete image",
    "tags": "Tags",
    "add": "Add",
    "status": "Status",
    "published": "Published",
    "draft": "Draft",
    "empty-title": "Empty title",
    "empty": "empty",
    "date": "Date",
    "external-cover-image": "External cover image",
    "parent": "Parent",
    "full-image-url": "Full image URL.",
    "this-field-is-used-when-you-order-the-content-by-position": "This field is used when you order the content by position.",
    "position": "Position",
    "friendly-url": "Friendly URL",
    "image-description": "Image description",
    "add-a-new-category": "Add a new category",
    "name": "Name",
    "username": "Username",
    "first-name": "First name",
    "last-name": "Last name",
    "to-schedule-the-content-select-the-date-and-time": "To schedule the content select the date and time, the status has to be set to \"Published\".",
    "email": "Email",
    "role": "Role",
    "registered": "Registered",
    "site-information": "Site information",
    "site-title": "Site title",
    "use-this-field-to-name-your-site": "Use this field to name your site, it will appear at the top of every page of your site.",
    "site-slogan": "Site slogan",
    "use-this-field-to-add-a-catchy-phrase": "Use this field to add a catchy phrase on your site.",
    "site-description": "Site description",
    "you-can-add-a-site-description-to-provide": "You can add a site description to provide a short bio or description of your site.",
    "footer-text": "Footer text",
    "you-can-add-a-small-text-on-the-bottom": "You can add a small text on the bottom of every page. eg: copyright, owner, dates, etc.",
    "social-networks-links": "Social networks links",
    "site-url": "Site url",
    "email-account-settings": "Email account settings",
    "sender-email": "Sender email",
    "emails-will-be-sent-from-this-address": "Emails will be sent from this address.",
    "url-filters": "URL filters",
    "select-your-sites-language": "Select your site's language.",
    "timezone": "Timezone",
    "select-a-timezone-for-a-correct": "Select a timezone for a correct date\/time display on your site.",
    "locale": "Locale",
    "date-and-time-formats": "Date and time formats",
    "date-format": "Date format",
    "current-format": "Current format",
    "version": "Version",
    "author": "Author",
    "activate": "Activate",
    "deactivate": "Deactivate",
    "edit-category": "Edit category",
    "delete": "Delete",
    "password": "Password",
    "confirm-password": "Confirm Password",
    "editor": "Editor",
    "administrator": "Administrator",
    "edit-user": "Edit user",
    "edit-content": "Edit content",
    "profile": "Profile",
    "change-password": "Change password",
    "enabled": "Enabled",
    "disable-the-user": "Disable the user",
    "profile-picture": "Profile picture",
    "edit-or-delete-your-categories": "Edit or delete your categories",
    "create-a-new-category-to-organize-your-content": "Create a new category to organize your content",
    "confirm-delete-this-action-cannot-be-undone": "Confirm delete, this action cannot be undone.",
    "do-you-want-to-disable-the-user": "Do you want to disable the user ?",
    "new-password": "New password",
    "you-can-change-this-field-when-save-the-current-changes": "You can change this field when save the current changes.",
    "items-per-page": "Items per page",
    "invite-a-friend-to-collaborate-on-your-site": "Invite a friend to collaborate on your site",
    "number-of-items-to-show-per-page": "Number of items to show per page.",
    "website-or-blog": "Website or Blog",
    "order-content-by": "Order content By",
    "edit-or-delete-content-from-your-site": "Edit or delete content from your site",
    "order-the-content-by-date-to-build-a-blog": "Order the content by date to build a Blog or order the content by position to build a Website.",
    "page-not-found-content": "Hey! look like the page doesn't exist.",
    "page-not-found": "Page not found",
    "predefined-pages": "Predefined pages",
    "returning-page-when-the-page-doesnt-exist": "Returning page when the page doesn't exist, leave it blank if you want to returns a default message.",
    "returning-page-for-the-main-page": "Returning page for the main page, leave it blank if you want to show all the pages on the main page.",
    "full-url-of-your-site": "Full URL of your site. Complete with the protocol HTTP or HTTPS (only if you have enabled SSL on your server).",
    "with-the-locales-you-can-set-the-regional-user-interface": "With the locales, you can set the regional user interface, such as the dates in your language. The locales need to be installed on your system.",
    "ezcms-installer": "EzCMS Installer",
    "choose-your-language": "Choose your language",
    "next": "Next",
    "complete-the-form-choose-a-password-for-the-username-admin": "Complete the form, choose a password for the username « admin »",
    "show-password": "Show password",
    "install": "Install",
    "login": "Log in",
    "back-to-login-form": "Back to login form",
    "get-login-access-code": "Get login access code",
    "email-access-code": "Email access code",
    "whats-next": "What's Next",
    "username-or-password-incorrect": "Username or password incorrect",
    "follow-ezcms-on": "Follow EzCMS on",
    "this-is-a-brief-description-of-yourself-our-your-site": "This is a brief description of yourself or your site, to change this text go to the admin panel, settings, plugins, and configure the plugin about.",
    "new-version-available": "New version available",
    "new-category-created": "New category created",
    "category-deleted": "Category deleted",
    "category-edited": "Category edited",
    "new-user-created": "New user created",
    "user-edited": "User edited",
    "user-deleted": "User deleted",
    "recommended-for-recovery-password-and-notifications": "Recommended for recovery password and notifications.",
    "authentication-token": "Authentication Token",
    "token": "Token",
    "current-status": "Current status",
    "upload-image": "Upload image",
    "the-changes-have-been-saved": "The changes have been saved",
    "label": "Label",
    "links": "Links",
    "this-title-is-almost-always-used-in-the-sidebar-of-the-site": "This title is almost always used in the sidebar of the site.",
    "password-must-be-at-least-6-characters-long": "Password must be at least 6 characters long",
    "ip-address-has-been-blocked": "IP address has been blocked.",
    "try-again-in-a-few-minutes": "Try again in a few minutes.",
    "content-published-from-scheduler": "Content published from scheduler",
    "blog": "Blog",
    "complete-all-fields": "Complete all fields",
    "static": "Static",
    "about-your-site-or-yourself": "About your site or yourself",
    "homepage": "Homepage",
    "disabled": "Disabled",
    "to-enable-the-user-you-must-set-a-new-password": "To enable the user you must set a new password.",
    "delete-the-user-and-associate-his-content-to-admin-user": "Delete the user and associate his content to admin user",
    "delete-the-user-and-all-his-content": "Delete the user and all his content",
    "user-disabled": "User disabled",
    "user-password-changed": "User password changed",
    "the-password-and-confirmation-password-do-not-match": "The password and confirmation password do not match",
    "scheduled-content": "Scheduled content",
    "there-are-no-scheduled-content": "There are no scheduled content.",
    "new-content-created": "New content created",
    "content-edited": "Content edited",
    "content-deleted": "Contente deleted",
    "undefined": "Undefined",
    "create-new-content-for-your-site": "Create new content for your site",
    "order-items-by": "Order items by",
    "all-content": "All content",
    "dynamic": "Dynamic",
    "type": "Type",
    "draft-content": "Draft content",
    "post": "Post",
    "default": "Default",
    "latest-content": "Latest content",
    "default-message": "Default message",
    "no-parent": "No parent",
    "have-you-seen-my-ball": "Have you seen my ball?",
    "pagebreak": "Page break",
    "pages": "Pages",
    "this-plugin-may-not-be-supported-by-this-version-of-ezcms": "This plugin may not be supported by this version of EzCMS",
    "previous": "Previous",
    "previous-page": "Previous page",
    "next-page": "Next page",
    "scheduled": "Scheduled",
    "this-token-is-similar-to-a-password-it-should-not-be-shared": "This token is similar to a password, it should not be shared.",
    "congratulations-you-have-successfully-installed-your-own-copy-of-ezcms": "Congratulations! You've have successfully installed your own copy of EzCMS!",
    "this-theme-may-not-be-supported-by-this-version-of-ezcms": "This theme may not be supported by this version of EzCMS",
    "read-more": "Read more",
    "remember-me": "Remember me",
    "plugins-position": "Plugin position",
    "plugins-sorted": "Plugins sorted",
    "plugins-position-changed": "Plugin position changed",
    "drag-and-drop-to-set-the-position-of-the-plugin": "Drag and Drop to set the position of the plugins",
    "change-the-position-of-the-plugins": "Change the position of the plugins",
    "reading-time": "Reading time",
    "minutes": "minutes",
    "minute": "minute",
    "example-page-1-slug": "create-your-own-content",
    "example-page-1-title": "Create your own content",
    "example-page-1-content": "Start writing your own content or simply edit this content to fit your needs. To create, edit or remove content. Simply login to your admin panel with the username and the password you created during the installation process.",
    "example-page-2-slug": "setup-your-new-site",
    "example-page-2-title": "Setup your new site",
    "example-page-2-content": "Update the settings of your site from your <a href=\".\/admin\/\">admin panel<\/a>. You can change the title, description and social networks from Settings: General.",
    "example-page-3-slug": "follow-ezcms",
    "example-page-3-title": "Follow EzCMS",
    "example-page-3-content": "Get information, and news about new releases, themes or new plugins by visiting the <a href=\"https:\/\/ezcms.net/blogs\" target=\"_blank\">EzCMS Blog<\/a>.",
    "example-page-4-slug": "about",
    "example-page-4-title": "About",
    "example-page-4-content": "Your About page is typically one of the most visited pages on your site. It should be simple, with a few key things; such as your name, who are you, how to contact you, and maybe a small story, etc...",
    "the-extension-zip-is-not-installed": "The extension zip is not installed, to use this plugin you need to install the extension.",
    "there-are-no-sticky-pages-at-this-moment": "There are no sticky pages at this moment.",
    "there-are-no-scheduled-pages-at-this-moment": "There are no scheduled pages at this moment.",
    "update": "Update",
    "template": "Template",
    "nickname": "Nickname",
    "disable-user": "Disable user",
    "delete-user-and-keep-content": "Delete user and keep content",
    "delete-user-and-delete-content": "Delete user and delete content (Warning)",
    "social-networks": "Social Networks",
    "interval": "Interval",
    "number-in-minutes-for-every-execution-of-autosave": "Number in minutes for every execution of autosave.",
    "extreme-friendly-url": "Extreme friendly URL",
    "title-formats": "Title formats",
    "delete-content": "Delete content",
    "are-you-sure-you-want-to-delete-this-page": "Are you sure you want to delete this page?",
    "sticky": "Sticky",
    "actions": "Actions",
    "edit": "Edit",
    "options": "Options",
    "enter-title": "Enter title",
    "media-manager": "Media Manager",
    "set-a-cover-image-from-external-url,-such-as-a-cdn-or-some-server-dedicated-for-images": "Set a cover image from an external URL, such as a CDN or some server dedicated for images.",
    "user": "User",
    "date-format-format": "Date format: <code>YYYY-MM-DD Hours:Minutes:Seconds<\/code>",
    "start-typing-a-page-title-to-see-a-list-of-suggestions": "Start typing a page title to see a list of suggestions.",
    "field-used-when-ordering-content-by-position": "Field used when ordering content by position",
    "write-a-template-name-to-filter-the-page-in-the-theme-and-change-the-style-of-the-page": "Write a template name to filter the page in the theme and change the style of the page.",
    "write-the-tags-separated-by-commas": "Write the tags separated by comma.",
    "apply-code-noindex-code-to-this-page": "Apply <code>noindex<\/code> to this page.",
    "this-tells-search-engines-not-to-show-this-page-in-their-search-results": "This tells search engines not to show this page in their search results.",
    "apply-code-nofollow-code-to-this-page": "Apply <code>nofollow<\/code> to this page.",
    "this-tells-search-engines-not-to-follow-links-on-this-page": "This tells search engines not to follow links on this page.",
    "apply-code-noarchive-code-to-this-page": "Apply <code>noarchive<\/code> to this page.",
    "this-tells-search-engines-not-to-save-a-cached-copy-of-this-page": "This tells search engines not to save a cached copy of this page.",
    "uncategorized": "Uncategorized",
    "done": "Done",
    "delete-category": "Delete category",
    "are-you-sure-you-want-to-delete-this-category?": "Are you sure you want to delete this category?",
    "confirm-new-password": "Confirm new password",
    "the-nickname-is-almost-used-in-the-themes-to-display-the-author-of-the-content": "The nickname is almost used in the themes to display the author of the content",
    "allow-unicode": "Allow Unicode",
    "allow-unicode-characters-in-the-url-and-some-part-of-the-system": "Allow Unicode characters in the URL and some part of the system.",
    "variables-allowed": "Variables allowed",
    "tag": "Tag",
    "drag-and-drop-to-sort-the-plugins": "Drag and Drop to sort the plugins.",
    "seo": "SEO",
    "documentation": "Documentation",
    "forum-support": "Forum support",
    "chat-support": "Chat support",
    "quick-links": "Quick links",
    "leave-empty-for-autocomplete-by-ezcms": "Leave empty for autocomplete by EzCMS.",
    "choose-a-password-for-the-admin-user": "Choose a password for the user <code>admin<\/code>",
    "access-denied": "Access denied",
    "choose-images-to-upload": "Choose images to upload",
    "insert": "Insert",
    "upload": "Upload",
    "autosave": "Autosave",
    "the-content-is-saved-as-a-draft-to-publish-it": "The content is saved as a draft. To publish it click on the button <b>Publish<\/b> or if you still working on it click on <b>Save as draft<\/b>.",
    "site": "Site",
    "first": "First",
    "last": "Last",
    "there-are-no-pages-at-this-moment": "There are no pages at this moment.",
    "there-are-no-static-pages-at-this-moment": "There are no static pages at this moment.",
    "there-are-no-draft-pages-at-this-moment": "There are no draft pages at this moment.",
    "good-morning": "Good morning",
    "good-afternoon": "Good afternoon",
    "good-evening": "Good evening",
    "good-night": "Good night",
    "hello": "Hello",
    "there-are-no-images-for-the-page": "There are no images for the page.",
    "select-cover-image": "Select cover image",
    "this-plugin-depends-on-the-following-plugins": "This plugin depends on the following plugins.",
    "no-pages-found": "No pages found",
    "system-updated": "System updated",
    "security": "Security",
    "remove-cover-image": "Remove cover image",
    "width": "Width",
    "height": "Height",
    "quality": "Quality",
    "thumbnails": "Thumbnails",
    "thumbnail": "Thumbnail",
    "thumbnail-width-in-pixels": "Thumbnail width in pixels (px).",
    "thumbnail-height-in-pixels": "Thumbnail height in pixels (px).",
    "thumbnail-quality-in-percentage": "Thumbnail quality in percentage (%).",
    "maximum-load-file-size-allowed:": "Maximum load file size allowed:",
    "file-type-is-not-supported": "File type is not supported. Allowed types:",
    "page-content": "Page content",
    "markdown-parser": "Markdown parser",
    "site-logo": "Site logo",
    "search": "Search",
    "search-plugins": "Search plugins",
    "enabled-plugins": "Enabled plugins",
    "disabled-plugins": "Disabled plugins",
    "remove-logo": "Remove logo",
    "preview": "Preview",
    "author-can-write-and-edit-their-own-content": "Author: Can write and edit their own content. Editor: Can write and edit the content of others.",
    "custom-fields": "Custom fields",
    "define-custom-fields-for-the-content": "Define custom fields for the content. Learn more about custom fields in the <a href='https:\/\/ezcms.net/docs\/en\/content\/custom-fields'>documentation<\/a>.",
    "start-typing-to-see-a-list-of-suggestions": "Start typing to see a list of suggestions.",
    "view": "View"
}
